[
    {
        "total-distance": 0.0, 
        "distance-from-previous": 0.0, 
        "lon": -0.07651325315237045, 
        "lat": 51.52471160888672, 
        "version": "1.1", 
        "t": 0, 
        "device": "iPhone7,2", 
        "alt": 19.482364654541016, 
        "os": "8.1"
    }, 
    {
        "total-distance": 0.0035308497536373617, 
        "distance-from-previous": 0.0035308497536373617, 
        "lon": -0.07654862850904465, 
        "lat": 51.52473449707031, 
        "version": "1.1", 
        "t": 256, 
        "device": "iPhone7,2", 
        "alt": 19.482364654541016, 
        "os": "8.1"
    }, 
    {
        "total-distance": 0.014737548364089787, 
        "distance-from-previous": 0.011206698610452426, 
        "lon": -0.07661635428667068, 
        "lat": 51.52464294433594, 
        "version": "1.1", 
        "t": 256, 
        "device": "iPhone7,2", 
        "alt": 19.812171936035156, 
        "os": "8.1"
    }, 
    {
        "total-distance": 0.01964898440457206, 
        "distance-from-previous": 0.004911436040482273, 
        "lon": -0.0765477865934372, 
        "lat": 51.524654388427734, 
        "version": "1.1", 
        "t": 256, 
        "device": "iPhone7,2", 
        "alt": 20.022083282470703, 
        "os": "8.1"
    }, 
    {
        "total-distance": 1.792399330778735, 
        "distance-from-previous": 1.772750346374163, 
        "lon": -0.09633468836545944, 
        "lat": 51.5145263671875, 
        "version": "1.1", 
        "t": 41600, 
        "device": "iPhone7,2", 
        "alt": 19, 
        "os": "8.1"
    }, 
    {
        "total-distance": 2.9643782010526776, 
        "distance-from-previous": 1.1719788702739427, 
        "lon": -0.11297936737537384, 
        "lat": 51.516475677490234, 
        "version": "1.1", 
        "t": 42368, 
        "device": "iPhone7,2", 
        "alt": 21.25324058532715, 
        "os": "8.1"
    }, 
    {
        "total-distance": 3.8798587001285325, 
        "distance-from-previous": 0.9154804990758552, 
        "lon": -0.1261949986219406, 
        "lat": 51.51686477661133, 
        "version": "1.1", 
        "t": 42624, 
        "device": "iPhone7,2", 
        "alt": 26.04861068725586, 
        "os": "8.1"
    }, 
    {
        "total-distance": 4.395527217039656, 
        "distance-from-previous": 0.5156685169111235, 
        "lon": -0.12014544010162354, 
        "lat": 51.51957321166992, 
        "version": "1.1", 
        "t": 75392, 
        "device": "iPhone7,2", 
        "alt": 27, 
        "os": "8.1"
    }, 
    {
        "total-distance": 5.294403828262666, 
        "distance-from-previous": 0.8988766112230108, 
        "lon": -0.10783460736274719, 
        "lat": 51.52215576171875, 
        "version": "1.1", 
        "t": 75776, 
        "device": "iPhone7,2", 
        "alt": 23.806467056274414, 
        "os": "8.1"
    }, 
    {
        "total-distance": 6.879844004100781, 
        "distance-from-previous": 1.585440175838115, 
        "lon": -0.0856187492609024, 
        "lat": 51.52565383911133, 
        "version": "1.1", 
        "t": 76288, 
        "device": "iPhone7,2", 
        "alt": 19.113445281982422, 
        "os": "8.1"
    }, 
    {
        "total-distance": 7.228045281376861, 
        "distance-from-previous": 0.3482012772760799, 
        "lon": -0.08101283013820648, 
        "lat": 51.52691650390625, 
        "version": "1.1", 
        "t": 76544, 
        "device": "iPhone7,2", 
        "alt": 19, 
        "os": "8.1"
    }, 
    {
        "total-distance": 7.343922312960832, 
        "distance-from-previous": 0.11587703158397143, 
        "lon": -0.07944929599761963, 
        "lat": 51.52729034423828, 
        "version": "1.1", 
        "t": 76672, 
        "device": "iPhone7,2", 
        "alt": 18.366884231567383, 
        "os": "8.1"
    }, 
    {
        "total-distance": 7.517192913613992, 
        "distance-from-previous": 0.17327060065315986, 
        "lon": -0.07696345448493958, 
        "lat": 51.52748107910156, 
        "version": "1.1", 
        "t": 76800, 
        "device": "iPhone7,2", 
        "alt": 18.193389892578125, 
        "os": "8.1"
    }, 
    {
        "total-distance": 8.077597179832932, 
        "distance-from-previous": 0.5604042662189395, 
        "lon": -0.0719134584069252, 
        "lat": 51.52354049682617, 
        "version": "1.1", 
        "t": 130304, 
        "device": "iPhone7,2", 
        "alt": 18.633304595947266, 
        "os": "8.1"
    }, 
    {
        "total-distance": 8.39685056275692, 
        "distance-from-previous": 0.31925338292398914, 
        "lon": -0.07652353495359421, 
        "lat": 51.52366638183594, 
        "version": "1.1", 
        "t": 155520, 
        "device": "iPhone7,2", 
        "alt": 17.40548324584961, 
        "os": "8.1"
    }, 
    {
        "total-distance": 10.04041457951037, 
        "distance-from-previous": 1.6435640167534502, 
        "lon": -0.09487591683864594, 
        "lat": 51.5142822265625, 
        "version": "1.1", 
        "t": 214912, 
        "device": "iPhone7,2", 
        "alt": 19, 
        "os": "8.1"
    }, 
    {
        "total-distance": 11.84052419300758, 
        "distance-from-previous": 1.8001096134972088, 
        "lon": -0.12037944048643112, 
        "lat": 51.51747512817383, 
        "version": "1.1", 
        "t": 215808, 
        "device": "iPhone7,2", 
        "alt": 21.072681427001953, 
        "os": "8.1"
    }, 
    {
        "total-distance": 12.371696238069507, 
        "distance-from-previous": 0.5311720450619271, 
        "lon": -0.12796801328659058, 
        "lat": 51.516754150390625, 
        "version": "1.1", 
        "t": 216064, 
        "device": "iPhone7,2", 
        "alt": 27, 
        "os": "8.1"
    }, 
    {
        "total-distance": 12.612108867793372, 
        "distance-from-previous": 0.2404126297238646, 
        "lon": -0.13057857751846313, 
        "lat": 51.51532745361328, 
        "version": "1.1", 
        "t": 221056, 
        "device": "iPhone7,2", 
        "alt": 29.656253814697266, 
        "os": "8.1"
    }, 
    {
        "total-distance": 12.89447985385304, 
        "distance-from-previous": 0.2823709860596679, 
        "lon": -0.13312631845474243, 
        "lat": 51.513343811035156, 
        "version": "1.1", 
        "t": 231296, 
        "device": "iPhone7,2", 
        "alt": 25.917869567871094, 
        "os": "8.1"
    }, 
    {
        "total-distance": 15.462017755319845, 
        "distance-from-previous": 2.567537901466805, 
        "lon": -0.0964297279715538, 
        "lat": 51.51675796508789, 
        "version": "1.1", 
        "t": 249472, 
        "device": "iPhone7,2", 
        "alt": 27.211883544921875, 
        "os": "8.1"
    }, 
    {
        "total-distance": 16.42192338920542, 
        "distance-from-previous": 0.9599056338855747, 
        "lon": -0.08262047171592712, 
        "lat": 51.517581939697266, 
        "version": "1.1", 
        "t": 249856, 
        "device": "iPhone7,2", 
        "alt": 19.354324340820312, 
        "os": "8.1"
    }, 
    {
        "total-distance": 16.972274570802266, 
        "distance-from-previous": 0.5503511815968467, 
        "lon": -0.07740771025419235, 
        "lat": 51.52132034301758, 
        "version": "1.1", 
        "t": 250496, 
        "device": "iPhone7,2", 
        "alt": 19, 
        "os": "8.1"
    }, 
    {
        "total-distance": 17.47894591732096, 
        "distance-from-previous": 0.5066713465186921, 
        "lon": -0.07777297496795654, 
        "lat": 51.52587127685547, 
        "version": "1.1", 
        "t": 267648, 
        "device": "iPhone7,2", 
        "alt": 19.710756301879883, 
        "os": "8.1"
    }, 
    {
        "total-distance": 18.583418306681903, 
        "distance-from-previous": 1.1044723893609423, 
        "lon": -0.0800151601433754, 
        "lat": 51.51603698730469, 
        "version": "1.1", 
        "t": 316160, 
        "device": "iPhone7,2", 
        "alt": 23.487951278686523, 
        "os": "8.1"
    }, 
    {
        "total-distance": 19.47077131796788, 
        "distance-from-previous": 0.8873530112859791, 
        "lon": -0.07621494680643082, 
        "lat": 51.523658752441406, 
        "version": "1.1", 
        "t": 316544, 
        "device": "iPhone7,2", 
        "alt": 20.12174415588379, 
        "os": "8.1"
    }, 
    {
        "total-distance": 20.202102930245058, 
        "distance-from-previous": 0.7313316122771785, 
        "lon": -0.07608655095100403, 
        "lat": 51.530235290527344, 
        "version": "1.1", 
        "t": 342272, 
        "device": "iPhone7,2", 
        "alt": 19, 
        "os": "8.1"
    }, 
    {
        "total-distance": 22.1958404751479, 
        "distance-from-previous": 1.993737544902841, 
        "lon": -0.07675701379776001, 
        "lat": 51.548160552978516, 
        "version": "1.1", 
        "t": 342528, 
        "device": "iPhone7,2", 
        "alt": 19, 
        "os": "8.1"
    }, 
    {
        "total-distance": 24.055779402661223, 
        "distance-from-previous": 1.8599389275133225, 
        "lon": -0.1034923642873764, 
        "lat": 51.54632568359375, 
        "version": "1.1", 
        "t": 342912, 
        "device": "iPhone7,2", 
        "alt": 34.13076400756836, 
        "os": "8.1"
    }, 
    {
        "total-distance": 24.244767005114753, 
        "distance-from-previous": 0.1889876024535314, 
        "lon": -0.10335765033960342, 
        "lat": 51.54462814331055, 
        "version": "1.1", 
        "t": 348800, 
        "device": "iPhone7,2", 
        "alt": 35.524436950683594, 
        "os": "8.1"
    }, 
    {
        "total-distance": 24.24574344408314, 
        "distance-from-previous": 0.0009764389683877817, 
        "lon": -0.10334493219852448, 
        "lat": 51.54462432861328, 
        "version": "1.1", 
        "t": 360832, 
        "device": "iPhone7,2", 
        "alt": 31.336130142211914, 
        "os": "8.1"
    }, 
    {
        "total-distance": 26.33107819983908, 
        "distance-from-previous": 2.085334755755942, 
        "lon": -0.07319577783346176, 
        "lat": 51.54424285888672, 
        "version": "1.1", 
        "t": 361216, 
        "device": "iPhone7,2", 
        "alt": 19, 
        "os": "8.1"
    }, 
    {
        "total-distance": 27.03353646857447, 
        "distance-from-previous": 0.7024582687353915, 
        "lon": -0.07814746350049973, 
        "lat": 51.54975891113281, 
        "version": "1.1", 
        "t": 364032, 
        "device": "iPhone7,2", 
        "alt": 21.76329803466797, 
        "os": "8.1"
    }, 
    {
        "total-distance": 27.544007394980618, 
        "distance-from-previous": 0.5104709264061457, 
        "lon": -0.07439106702804565, 
        "lat": 51.545806884765625, 
        "version": "1.1", 
        "t": 365056, 
        "device": "iPhone7,2", 
        "alt": 21.492626190185547, 
        "os": "8.1"
    }, 
    {
        "total-distance": 28.979003356989814, 
        "distance-from-previous": 1.4349959620091968, 
        "lon": -0.07691027969121933, 
        "lat": 51.532997131347656, 
        "version": "1.1", 
        "t": 370816, 
        "device": "iPhone7,2", 
        "alt": 19, 
        "os": "8.1"
    }, 
    {
        "total-distance": 29.859734671835817, 
        "distance-from-previous": 0.8807313148460043, 
        "lon": -0.07751450687646866, 
        "lat": 51.52508544921875, 
        "version": "1.1", 
        "t": 371328, 
        "device": "iPhone7,2", 
        "alt": 18.394317626953125, 
        "os": "8.1"
    }, 
    {
        "total-distance": 30.37446252273413, 
        "distance-from-previous": 0.5147278508983154, 
        "lon": -0.08270106464624405, 
        "lat": 51.521766662597656, 
        "version": "1.1", 
        "t": 399232, 
        "device": "iPhone7,2", 
        "alt": 18.126272201538086, 
        "os": "8.1"
    }, 
    {
        "total-distance": 31.612616356106724, 
        "distance-from-previous": 1.2381538333725914, 
        "lon": -0.09286828339099884, 
        "lat": 51.512603759765625, 
        "version": "1.1", 
        "t": 399616, 
        "device": "iPhone7,2", 
        "alt": 19, 
        "os": "8.1"
    }, 
    {
        "total-distance": 33.70963877992177, 
        "distance-from-previous": 2.097022423815047, 
        "lon": -0.12181244790554047, 
        "lat": 51.507022857666016, 
        "version": "1.1", 
        "t": 399872, 
        "device": "iPhone7,2", 
        "alt": 26.489105224609375, 
        "os": "8.1"
    }, 
    {
        "total-distance": 34.44081809171321, 
        "distance-from-previous": 0.7311793117914419, 
        "lon": -0.13236577808856964, 
        "lat": 51.507328033447266, 
        "version": "1.1", 
        "t": 400512, 
        "device": "iPhone7,2", 
        "alt": 27, 
        "os": "8.1"
    }, 
    {
        "total-distance": 35.213847466100944, 
        "distance-from-previous": 0.7730293743877343, 
        "lon": -0.14346900582313538, 
        "lat": 51.50657272338867, 
        "version": "1.1", 
        "t": 400896, 
        "device": "iPhone7,2", 
        "alt": 18.84163475036621, 
        "os": "8.1"
    }, 
    {
        "total-distance": 37.72185522094909, 
        "distance-from-previous": 2.508007754848143, 
        "lon": -0.17517448961734772, 
        "lat": 51.49565505981445, 
        "version": "1.1", 
        "t": 401280, 
        "device": "iPhone7,2", 
        "alt": 19.02015495300293, 
        "os": "8.1"
    }, 
    {
        "total-distance": 42.10789792655443, 
        "distance-from-previous": 4.386042705605339, 
        "lon": -0.23786668479442596, 
        "lat": 51.48997116088867, 
        "version": "1.1", 
        "t": 401792, 
        "device": "iPhone7,2", 
        "alt": 7.417135715484619, 
        "os": "8.1"
    }, 
    {
        "total-distance": 46.49900462174897, 
        "distance-from-previous": 4.391106695194547, 
        "lon": -0.3012561500072479, 
        "lat": 51.49126434326172, 
        "version": "1.1", 
        "t": 402176, 
        "device": "iPhone7,2", 
        "alt": 8.707985877990723, 
        "os": "8.1"
    }, 
    {
        "total-distance": 52.5288322881621, 
        "distance-from-previous": 6.029827666413127, 
        "lon": -0.21420027315616608, 
        "lat": 51.48969650268555, 
        "version": "1.1", 
        "t": 424576, 
        "device": "iPhone7,2", 
        "alt": 12.20650863647461, 
        "os": "8.1"
    }, 
    {
        "total-distance": 54.177810023797846, 
        "distance-from-previous": 1.6489777356357465, 
        "lon": -0.19728493690490723, 
        "lat": 51.50013732910156, 
        "version": "1.1", 
        "t": 425728, 
        "device": "iPhone7,2", 
        "alt": 7.46240758895874, 
        "os": "8.1"
    }, 
    {
        "total-distance": 59.1343616774489, 
        "distance-from-previous": 4.956551653651052, 
        "lon": -0.13888773322105408, 
        "lat": 51.52594757080078, 
        "version": "1.1", 
        "t": 426112, 
        "device": "iPhone7,2", 
        "alt": 13.62628173828125, 
        "os": "8.1"
    }, 
    {
        "total-distance": 59.65395629163547, 
        "distance-from-previous": 0.5195946141865686, 
        "lon": -0.13165637850761414, 
        "lat": 51.5272102355957, 
        "version": "1.1", 
        "t": 426368, 
        "device": "iPhone7,2", 
        "alt": 22.472393035888672, 
        "os": "8.1"
    }, 
    {
        "total-distance": 61.49065105248749, 
        "distance-from-previous": 1.8366947608520239, 
        "lon": -0.10618625581264496, 
        "lat": 51.53187561035156, 
        "version": "1.1", 
        "t": 426752, 
        "device": "iPhone7,2", 
        "alt": 27, 
        "os": "8.1"
    }, 
    {
        "total-distance": 63.63269480088745, 
        "distance-from-previous": 2.142043748399955, 
        "lon": -0.0773865133523941, 
        "lat": 51.52479934692383, 
        "version": "1.1", 
        "t": 427264, 
        "device": "iPhone7,2", 
        "alt": 19, 
        "os": "8.1"
    }, 
    {
        "total-distance": 63.7297358655944, 
        "distance-from-previous": 0.09704106470695162, 
        "lon": -0.0759909451007843, 
        "lat": 51.52471160888672, 
        "version": "1.1", 
        "t": 491136, 
        "device": "iPhone7,2", 
        "alt": 19.929685592651367, 
        "os": "8.1"
    }, 
    {
        "total-distance": 63.84920884485764, 
        "distance-from-previous": 0.11947297926324577, 
        "lon": -0.07626841962337494, 
        "lat": 51.523651123046875, 
        "version": "1.1", 
        "t": 507776, 
        "device": "iPhone7,2", 
        "alt": 16.829763412475586, 
        "os": "8.1"
    }, 
    {
        "total-distance": 65.53532908792168, 
        "distance-from-previous": 1.6861202430640376, 
        "lon": -0.09798379987478256, 
        "lat": 51.51676940917969, 
        "version": "1.1", 
        "t": 561152, 
        "device": "iPhone7,2", 
        "alt": 16.9405460357666, 
        "os": "8.1"
    }, 
    {
        "total-distance": 67.0922476016792, 
        "distance-from-previous": 1.5569185137575197, 
        "lon": -0.12048424780368805, 
        "lat": 51.51677703857422, 
        "version": "1.1", 
        "t": 562176, 
        "device": "iPhone7,2", 
        "alt": 17.361291885375977, 
        "os": "8.1"
    }, 
    {
        "total-distance": 67.87875953980205, 
        "distance-from-previous": 0.786511938122839, 
        "lon": -0.1315334290266037, 
        "lat": 51.51511764526367, 
        "version": "1.1", 
        "t": 572160, 
        "device": "iPhone7,2", 
        "alt": 27.36227035522461, 
        "os": "8.1"
    }, 
    {
        "total-distance": 70.9275617768714, 
        "distance-from-previous": 3.0488022370693537, 
        "lon": -0.08755359798669815, 
        "lat": 51.51677322387695, 
        "version": "1.1", 
        "t": 596224, 
        "device": "iPhone7,2", 
        "alt": 30.465133666992188, 
        "os": "8.1"
    }, 
    {
        "total-distance": 72.12378954441542, 
        "distance-from-previous": 1.1962277675440223, 
        "lon": -0.07610324025154114, 
        "lat": 51.52483367919922, 
        "version": "1.1", 
        "t": 596736, 
        "device": "iPhone7,2", 
        "alt": 18.118846893310547, 
        "os": "8.1"
    }, 
    {
        "total-distance": 73.34770176007395, 
        "distance-from-previous": 1.2239122156585331, 
        "lon": -0.06040458381175995, 
        "lat": 51.51976013183594, 
        "version": "1.1", 
        "t": 658176, 
        "device": "iPhone7,2", 
        "alt": 19, 
        "os": "8.1"
    }, 
    {
        "total-distance": 74.11117258715207, 
        "distance-from-previous": 0.7634708270781196, 
        "lon": -0.07106617093086243, 
        "lat": 51.52153015136719, 
        "version": "1.1", 
        "t": 659328, 
        "device": "iPhone7,2", 
        "alt": 19, 
        "os": "8.1"
    }, 
    {
        "total-distance": 74.61865467828106, 
        "distance-from-previous": 0.5074820911289871, 
        "lon": -0.0763431265950203, 
        "lat": 51.52470016479492, 
        "version": "1.1", 
        "t": 659840, 
        "device": "iPhone7,2", 
        "alt": 19.71579933166504, 
        "os": "8.1"
    }, 
    {
        "total-distance": 74.62203695684074, 
        "distance-from-previous": 0.0033822785596888272, 
        "lon": -0.07639045268297195, 
        "lat": 51.52470779418945, 
        "version": "1.1", 
        "t": 699648, 
        "device": "iPhone7,2", 
        "alt": 21.41598892211914, 
        "os": "8.1"
    }, 
    {
        "total-distance": 74.94868451846031, 
        "distance-from-previous": 0.326647561619569, 
        "lon": -0.0808168575167656, 
        "lat": 51.52573013305664, 
        "version": "1.1", 
        "t": 850048, 
        "device": "iPhone7,2", 
        "alt": 17.562423706054688, 
        "os": "8.1"
    }, 
    {
        "total-distance": 74.95383385398681, 
        "distance-from-previous": 0.005149335526496652, 
        "lon": -0.0808483436703682, 
        "lat": 51.52568817138672, 
        "version": "1.1", 
        "t": 850176, 
        "device": "iPhone7,2", 
        "alt": 17.562423706054688, 
        "os": "8.1"
    }, 
    {
        "total-distance": 75.22314344066733, 
        "distance-from-previous": 0.26930958668051724, 
        "lon": -0.08461069315671921, 
        "lat": 51.526309967041016, 
        "version": "1.1", 
        "t": 852608, 
        "device": "iPhone7,2", 
        "alt": 19, 
        "os": "8.1"
    }, 
    {
        "total-distance": 77.69650378068135, 
        "distance-from-previous": 2.4733603400140294, 
        "lon": -0.12035059183835983, 
        "lat": 51.52573013305664, 
        "version": "1.1", 
        "t": 854016, 
        "device": "iPhone7,2", 
        "alt": 19, 
        "os": "8.1"
    }, 
    {
        "total-distance": 78.56418916764153, 
        "distance-from-previous": 0.8676853869601695, 
        "lon": -0.13222651183605194, 
        "lat": 51.52824020385742, 
        "version": "1.1", 
        "t": 854528, 
        "device": "iPhone7,2", 
        "alt": 27, 
        "os": "8.1"
    }, 
    {
        "total-distance": 80.40263186135162, 
        "distance-from-previous": 1.838442693710093, 
        "lon": -0.15023311972618103, 
        "lat": 51.540401458740234, 
        "version": "1.1", 
        "t": 855808, 
        "device": "iPhone7,2", 
        "alt": 27.439533233642578, 
        "os": "8.1"
    }, 
    {
        "total-distance": 86.01029288246383, 
        "distance-from-previous": 5.607661021112206, 
        "lon": -0.23061759769916534, 
        "lat": 51.53382110595703, 
        "version": "1.1", 
        "t": 856192, 
        "device": "iPhone7,2", 
        "alt": 30.415603637695312, 
        "os": "8.1"
    }, 
    {
        "total-distance": 104.54433034473092, 
        "distance-from-previous": 18.534037462267094, 
        "lon": -0.396587997674942, 
        "lat": 51.664794921875, 
        "version": "1.1", 
        "t": 856448, 
        "device": "iPhone7,2", 
        "alt": 32.021820068359375, 
        "os": "8.1"
    }, 
    {
        "total-distance": 119.46039346606919, 
        "distance-from-previous": 14.916063121338263, 
        "lon": -0.5510592460632324, 
        "lat": 51.75878143310547, 
        "version": "1.1", 
        "t": 856832, 
        "device": "iPhone7,2", 
        "alt": 32.021820068359375, 
        "os": "8.1"
    }, 
    {
        "total-distance": 129.03301789289864, 
        "distance-from-previous": 9.572624426829455, 
        "lon": -0.6415857672691345, 
        "lat": 51.82417297363281, 
        "version": "1.1", 
        "t": 857088, 
        "device": "iPhone7,2", 
        "alt": 32.021820068359375, 
        "os": "8.1"
    }, 
    {
        "total-distance": 150.14020619030293, 
        "distance-from-previous": 21.107188297404278, 
        "lon": -0.7409349083900452, 
        "lat": 52.00382995605469, 
        "version": "1.1", 
        "t": 857472, 
        "device": "iPhone7,2", 
        "alt": 89.99705505371094, 
        "os": "8.1"
    }, 
    {
        "total-distance": 170.53721713475136, 
        "distance-from-previous": 20.39701094444841, 
        "lon": -0.9015135169029236, 
        "lat": 52.1584587097168, 
        "version": "1.1", 
        "t": 857728, 
        "device": "iPhone7,2", 
        "alt": 89.99705505371094, 
        "os": "8.1"
    }, 
    {
        "total-distance": 185.24578585021047, 
        "distance-from-previous": 14.708568715459101, 
        "lon": -1.0806077718734741, 
        "lat": 52.23225402832031, 
        "version": "1.1", 
        "t": 858112, 
        "device": "iPhone7,2", 
        "alt": 89.99705505371094, 
        "os": "8.1"
    }, 
    {
        "total-distance": 202.4018466052205, 
        "distance-from-previous": 17.15606075501004, 
        "lon": -1.2126280069351196, 
        "lat": 52.363731384277344, 
        "version": "1.1", 
        "t": 858368, 
        "device": "iPhone7,2", 
        "alt": 89.99705505371094, 
        "os": "8.1"
    }, 
    {
        "total-distance": 219.28259006460996, 
        "distance-from-previous": 16.880743459389475, 
        "lon": -1.4095438718795776, 
        "lat": 52.456565856933594, 
        "version": "1.1", 
        "t": 858752, 
        "device": "iPhone7,2", 
        "alt": 89.99705505371094, 
        "os": "8.1"
    }, 
    {
        "total-distance": 233.45469629786658, 
        "distance-from-previous": 14.172106233256615, 
        "lon": -1.5213161706924438, 
        "lat": 52.56434631347656, 
        "version": "1.1", 
        "t": 859008, 
        "device": "iPhone7,2", 
        "alt": 89.99705505371094, 
        "os": "8.1"
    }, 
    {
        "total-distance": 246.49879562481385, 
        "distance-from-previous": 13.044099326947286, 
        "lon": -1.6758970022201538, 
        "lat": 52.634674072265625, 
        "version": "1.1", 
        "t": 859264, 
        "device": "iPhone7,2", 
        "alt": 89.99705505371094, 
        "os": "8.1"
    }, 
    {
        "total-distance": 258.4729804759944, 
        "distance-from-previous": 11.974184851180581, 
        "lon": -1.8158986568450928, 
        "lat": 52.7009162902832, 
        "version": "1.1", 
        "t": 859648, 
        "device": "iPhone7,2", 
        "alt": 89.99705505371094, 
        "os": "8.1"
    }, 
    {
        "total-distance": 268.9971002734445, 
        "distance-from-previous": 10.524119797450089, 
        "lon": -1.9296385049819946, 
        "lat": 52.76583480834961, 
        "version": "1.1", 
        "t": 859904, 
        "device": "iPhone7,2", 
        "alt": 89.99705505371094, 
        "os": "8.1"
    }, 
    {
        "total-distance": 279.96365355043855, 
        "distance-from-previous": 10.966553276994013, 
        "lon": -2.0267724990844727, 
        "lat": 52.84507369995117, 
        "version": "1.1", 
        "t": 860288, 
        "device": "iPhone7,2", 
        "alt": 89.99705505371094, 
        "os": "8.1"
    }, 
    {
        "total-distance": 295.1209672366676, 
        "distance-from-previous": 15.157313686229005, 
        "lon": -2.1889257431030273, 
        "lat": 52.939998626708984, 
        "version": "1.1", 
        "t": 860672, 
        "device": "iPhone7,2", 
        "alt": 89.99705505371094, 
        "os": "8.1"
    }, 
    {
        "total-distance": 302.7258847446049, 
        "distance-from-previous": 7.6049175079373565, 
        "lon": -2.1806440353393555, 
        "lat": 53.008209228515625, 
        "version": "1.1", 
        "t": 860928, 
        "device": "iPhone7,2", 
        "alt": 123.32920837402344, 
        "os": "8.1"
    }, 
    {
        "total-distance": 303.7305757084776, 
        "distance-from-previous": 1.0046909638726764, 
        "lon": -2.16776967048645, 
        "lat": 53.00355911254883, 
        "version": "1.1", 
        "t": 861952, 
        "device": "iPhone7,2", 
        "alt": 123.13804626464844, 
        "os": "8.1"
    }, 
    {
        "total-distance": 312.0673353346586, 
        "distance-from-previous": 8.336759626181008, 
        "lon": -2.1511449813842773, 
        "lat": 52.929256439208984, 
        "version": "1.1", 
        "t": 862592, 
        "device": "iPhone7,2", 
        "alt": 200.0322265625, 
        "os": "8.1"
    }, 
    {
        "total-distance": 314.2679276468571, 
        "distance-from-previous": 2.20059231219851, 
        "lon": -2.155644655227661, 
        "lat": 52.94886016845703, 
        "version": "1.1", 
        "t": 862848, 
        "device": "iPhone7,2", 
        "alt": 155.0027618408203, 
        "os": "8.1"
    }, 
    {
        "total-distance": 316.564520748458, 
        "distance-from-previous": 2.2965931016008816, 
        "lon": -2.146094799041748, 
        "lat": 52.96869659423828, 
        "version": "1.1", 
        "t": 864768, 
        "device": "iPhone7,2", 
        "alt": 155, 
        "os": "8.1"
    }, 
    {
        "total-distance": 320.1199107252575, 
        "distance-from-previous": 3.5553899767995008, 
        "lon": -2.1496589183807373, 
        "lat": 53.0005989074707, 
        "version": "1.1", 
        "t": 865664, 
        "device": "iPhone7,2", 
        "alt": 155, 
        "os": "8.1"
    }, 
    {
        "total-distance": 323.13267678121116, 
        "distance-from-previous": 3.01276605595362, 
        "lon": -2.1861205101013184, 
        "lat": 53.01649856567383, 
        "version": "1.1", 
        "t": 866560, 
        "device": "iPhone7,2", 
        "alt": 155, 
        "os": "8.1"
    }, 
    {
        "total-distance": 326.62015649549915, 
        "distance-from-previous": 3.487479714288, 
        "lon": -2.1442744731903076, 
        "lat": 52.997798919677734, 
        "version": "1.1", 
        "t": 867456, 
        "device": "iPhone7,2", 
        "alt": 155, 
        "os": "8.1"
    }, 
    {
        "total-distance": 330.188058107364, 
        "distance-from-previous": 3.5679016118648628, 
        "lon": -2.1490888595581055, 
        "lat": 52.965843200683594, 
        "version": "1.1", 
        "t": 868480, 
        "device": "iPhone7,2", 
        "alt": 155, 
        "os": "8.1"
    }, 
    {
        "total-distance": 331.6202286147681, 
        "distance-from-previous": 1.4321705074041498, 
        "lon": -2.1525821685791016, 
        "lat": 52.9531364440918, 
        "version": "1.1", 
        "t": 869376, 
        "device": "iPhone7,2", 
        "alt": 155, 
        "os": "8.1"
    }, 
    {
        "total-distance": 334.65758261124046, 
        "distance-from-previous": 3.0373539964723726, 
        "lon": -2.134270668029785, 
        "lat": 52.978126525878906, 
        "version": "1.1", 
        "t": 870272, 
        "device": "iPhone7,2", 
        "alt": 155, 
        "os": "8.1"
    }, 
    {
        "total-distance": 337.68389479092576, 
        "distance-from-previous": 3.026312179685291, 
        "lon": -2.1525182723999023, 
        "lat": 52.95322799682617, 
        "version": "1.1", 
        "t": 871808, 
        "device": "iPhone7,2", 
        "alt": 155, 
        "os": "8.1"
    }, 
    {
        "total-distance": 341.22559661717986, 
        "distance-from-previous": 3.5417018262541253, 
        "lon": -2.131589412689209, 
        "lat": 52.982479095458984, 
        "version": "1.1", 
        "t": 872192, 
        "device": "iPhone7,2", 
        "alt": 155, 
        "os": "8.1"
    }, 
    {
        "total-distance": 345.2961476618471, 
        "distance-from-previous": 4.070551044667237, 
        "lon": -2.155642032623291, 
        "lat": 52.94886016845703, 
        "version": "1.1", 
        "t": 872448, 
        "device": "iPhone7,2", 
        "alt": 155, 
        "os": "8.1"
    }, 
    {
        "total-distance": 349.35561888039774, 
        "distance-from-previous": 4.059471218550616, 
        "lon": -2.131654739379883, 
        "lat": 52.98238754272461, 
        "version": "1.1", 
        "t": 873600, 
        "device": "iPhone7,2", 
        "alt": 155, 
        "os": "8.1"
    }, 
    {
        "total-distance": 353.2361597181261, 
        "distance-from-previous": 3.8805408377283603, 
        "lon": -2.156282424926758, 
        "lat": 52.95079803466797, 
        "version": "1.1", 
        "t": 874624, 
        "device": "iPhone7,2", 
        "alt": 155, 
        "os": "8.1"
    }, 
    {
        "total-distance": 357.8516222693628, 
        "distance-from-previous": 4.615462551236685, 
        "lon": -2.127310276031494, 
        "lat": 52.988460540771484, 
        "version": "1.1", 
        "t": 875136, 
        "device": "iPhone7,2", 
        "alt": 155, 
        "os": "8.1"
    }, 
    {
        "total-distance": 362.14735013455993, 
        "distance-from-previous": 4.295727865197118, 
        "lon": -2.1848955154418945, 
        "lat": 53.00552749633789, 
        "version": "1.1", 
        "t": 875520, 
        "device": "iPhone7,2", 
        "alt": 155, 
        "os": "8.1"
    }, 
    {
        "total-distance": 368.56795658515085, 
        "distance-from-previous": 6.420606450590921, 
        "lon": -2.1565020084381104, 
        "lat": 52.950374603271484, 
        "version": "1.1", 
        "t": 876544, 
        "device": "iPhone7,2", 
        "alt": 155, 
        "os": "8.1"
    }, 
    {
        "total-distance": 370.5888207042945, 
        "distance-from-previous": 2.0208641191436274, 
        "lon": -2.1639938354492188, 
        "lat": 52.967979431152344, 
        "version": "1.1", 
        "t": 877696, 
        "device": "iPhone7,2", 
        "alt": 155, 
        "os": "8.1"
    }, 
    {
        "total-distance": 372.7821830434655, 
        "distance-from-previous": 2.1933623391710144, 
        "lon": -2.1556692123413086, 
        "lat": 52.94890213012695, 
        "version": "1.1", 
        "t": 878464, 
        "device": "iPhone7,2", 
        "alt": 155, 
        "os": "8.1"
    }, 
    {
        "total-distance": 376.89955688331895, 
        "distance-from-previous": 4.117373839853449, 
        "lon": -2.1749134063720703, 
        "lat": 52.98406982421875, 
        "version": "1.1", 
        "t": 942080, 
        "device": "iPhone7,2", 
        "alt": 123.39669799804688, 
        "os": "8.1"
    }, 
    {
        "total-distance": 381.4523929126805, 
        "distance-from-previous": 4.552836029361564, 
        "lon": -2.178555965423584, 
        "lat": 53.02495574951172, 
        "version": "1.1", 
        "t": 942592, 
        "device": "iPhone7,2", 
        "alt": 124.64152526855469, 
        "os": "8.1"
    }, 
    {
        "total-distance": 381.7660634000764, 
        "distance-from-previous": 0.3136704873958653, 
        "lon": -2.173959493637085, 
        "lat": 53.025516510009766, 
        "version": "1.1", 
        "t": 948608, 
        "device": "iPhone7,2", 
        "alt": 246.83251953125, 
        "os": "8.1"
    }, 
    {
        "total-distance": 383.4011157799311, 
        "distance-from-previous": 1.6350523798546786, 
        "lon": -2.193495750427246, 
        "lat": 53.01667785644531, 
        "version": "1.1", 
        "t": 962944, 
        "device": "iPhone7,2", 
        "alt": 164.97488403320312, 
        "os": "8.1"
    }, 
    {
        "total-distance": 384.51117135450136, 
        "distance-from-previous": 1.1100555745702338, 
        "lon": -2.1823782920837402, 
        "lat": 53.02408981323242, 
        "version": "1.1", 
        "t": 967168, 
        "device": "iPhone7,2", 
        "alt": 164.97488403320312, 
        "os": "8.1"
    }, 
    {
        "total-distance": 392.11604612626144, 
        "distance-from-previous": 7.604874771760072, 
        "lon": -2.177635669708252, 
        "lat": 52.95575714111328, 
        "version": "1.1", 
        "t": 974464, 
        "device": "iPhone7,2", 
        "alt": 164.97488403320312, 
        "os": "8.1"
    }, 
    {
        "total-distance": 393.8512790186619, 
        "distance-from-previous": 1.7352328924004403, 
        "lon": -2.1545050144195557, 
        "lat": 52.948734283447266, 
        "version": "1.1", 
        "t": 974848, 
        "device": "iPhone7,2", 
        "alt": 154.09469604492188, 
        "os": "8.1"
    }, 
    {
        "total-distance": 395.27974009156384, 
        "distance-from-previous": 1.428461072901966, 
        "lon": -2.1757431030273438, 
        "lat": 52.94760513305664, 
        "version": "1.1", 
        "t": 1080960, 
        "device": "iPhone7,2", 
        "alt": 156.99969482421875, 
        "os": "8.1"
    }, 
    {
        "total-distance": 396.63272482205394, 
        "distance-from-previous": 1.3529847304901048, 
        "lon": -2.155665397644043, 
        "lat": 52.948909759521484, 
        "version": "1.1", 
        "t": 1081344, 
        "device": "iPhone7,2", 
        "alt": 153.81883239746094, 
        "os": "8.1"
    }, 
    {
        "total-distance": 397.1482415083349, 
        "distance-from-previous": 0.5155166862809178, 
        "lon": -2.1587986946105957, 
        "lat": 52.94467544555664, 
        "version": "1.1", 
        "t": 1100800, 
        "device": "iPhone7,2", 
        "alt": 121.03250122070312, 
        "os": "8.1"
    }, 
    {
        "total-distance": 400.83782625712723, 
        "distance-from-previous": 3.6895847487923494, 
        "lon": -2.163749933242798, 
        "lat": 52.91162872314453, 
        "version": "1.1", 
        "t": 1101056, 
        "device": "iPhone7,2", 
        "alt": 109.41246032714844, 
        "os": "8.1"
    }, 
    {
        "total-distance": 402.54629438039257, 
        "distance-from-previous": 1.7084681232653187, 
        "lon": -2.1453158855438232, 
        "lat": 52.901023864746094, 
        "version": "1.1", 
        "t": 1101312, 
        "device": "iPhone7,2", 
        "alt": 113, 
        "os": "8.1"
    }, 
    {
        "total-distance": 402.5560449940251, 
        "distance-from-previous": 0.00975061363251954, 
        "lon": -2.145256757736206, 
        "lat": 52.900943756103516, 
        "version": "1.1", 
        "t": 1102848, 
        "device": "iPhone7,2", 
        "alt": 94.45770263671875, 
        "os": "8.1"
    }, 
    {
        "total-distance": 414.0826577985165, 
        "distance-from-previous": 11.526612804491355, 
        "lon": -2.1795175075531006, 
        "lat": 53.00252914428711, 
        "version": "1.1", 
        "t": 1103872, 
        "device": "iPhone7,2", 
        "alt": 161.74630737304688, 
        "os": "8.1"
    }, 
    {
        "total-distance": 414.7189501840028, 
        "distance-from-previous": 0.6362923854862766, 
        "lon": -2.180617570877075, 
        "lat": 53.00821304321289, 
        "version": "1.1", 
        "t": 1104384, 
        "device": "iPhone7,2", 
        "alt": 124.59889221191406, 
        "os": "8.1"
    }, 
    {
        "total-distance": 415.7208072929397, 
        "distance-from-previous": 1.0018571089369035, 
        "lon": -2.178678274154663, 
        "lat": 52.9992790222168, 
        "version": "1.1", 
        "t": 1105408, 
        "device": "iPhone7,2", 
        "alt": 123.8027114868164, 
        "os": "8.1"
    }, 
    {
        "total-distance": 440.54968748394424, 
        "distance-from-previous": 24.82888019100455, 
        "lon": -2.0066027641296387, 
        "lat": 52.801578521728516, 
        "version": "1.1", 
        "t": 1105792, 
        "device": "iPhone7,2", 
        "alt": 118.83024597167969, 
        "os": "8.1"
    }, 
    {
        "total-distance": 456.4444663516387, 
        "distance-from-previous": 15.89477886769445, 
        "lon": -1.8282538652420044, 
        "lat": 52.70786666870117, 
        "version": "1.1", 
        "t": 1106176, 
        "device": "iPhone7,2", 
        "alt": 118.55484008789062, 
        "os": "8.1"
    }, 
    {
        "total-distance": 470.236785180821, 
        "distance-from-previous": 13.792318829182324, 
        "lon": -1.6580716371536255, 
        "lat": 52.639041900634766, 
        "version": "1.1", 
        "t": 1106560, 
        "device": "iPhone7,2", 
        "alt": 117.89932250976562, 
        "os": "8.1"
    }, 
    {
        "total-distance": 505.2790608450769, 
        "distance-from-previous": 35.0422756642559, 
        "lon": -1.3124237060546875, 
        "lat": 52.40434265136719, 
        "version": "1.1", 
        "t": 1107200, 
        "device": "iPhone7,2", 
        "alt": 0, 
        "os": "8.1"
    }, 
    {
        "total-distance": 519.0982670380716, 
        "distance-from-previous": 13.81920619299473, 
        "lon": -1.1536649465560913, 
        "lat": 52.326576232910156, 
        "version": "1.1", 
        "t": 1107456, 
        "device": "iPhone7,2", 
        "alt": 0, 
        "os": "8.1"
    }, 
    {
        "total-distance": 534.5798603300448, 
        "distance-from-previous": 15.481593291973136, 
        "lon": -1.0170124769210815, 
        "lat": 52.21525573730469, 
        "version": "1.1", 
        "t": 1107840, 
        "device": "iPhone7,2", 
        "alt": 0, 
        "os": "8.1"
    }, 
    {
        "total-distance": 553.0309038911514, 
        "distance-from-previous": 18.45104356110665, 
        "lon": -0.836205780506134, 
        "lat": 52.091854095458984, 
        "version": "1.1", 
        "t": 1108224, 
        "device": "iPhone7,2", 
        "alt": 82, 
        "os": "8.1"
    }, 
    {
        "total-distance": 573.4443034548616, 
        "distance-from-previous": 20.41339956371022, 
        "lon": -0.677307665348053, 
        "lat": 51.93648910522461, 
        "version": "1.1", 
        "t": 1108480, 
        "device": "iPhone7,2", 
        "alt": 82, 
        "os": "8.1"
    }, 
    {
        "total-distance": 591.8896182090546, 
        "distance-from-previous": 18.445314754192932, 
        "lon": -0.6096080541610718, 
        "lat": 51.775962829589844, 
        "version": "1.1", 
        "t": 1108864, 
        "device": "iPhone7,2", 
        "alt": 90.67424011230469, 
        "os": "8.1"
    }, 
    {
        "total-distance": 604.5522256360736, 
        "distance-from-previous": 12.662607427019001, 
        "lon": -0.4476027190685272, 
        "lat": 51.7220344543457, 
        "version": "1.1", 
        "t": 1109248, 
        "device": "iPhone7,2", 
        "alt": 78.65382385253906, 
        "os": "8.1"
    }, 
    {
        "total-distance": 629.6684794502961, 
        "distance-from-previous": 25.11625381422254, 
        "lon": -0.2488676905632019, 
        "lat": 51.5328254699707, 
        "version": "1.1", 
        "t": 1109632, 
        "device": "iPhone7,2", 
        "alt": 49.5919189453125, 
        "os": "8.1"
    }, 
    {
        "total-distance": 636.5587419789339, 
        "distance-from-previous": 6.890262528637726, 
        "lon": -0.1500069946050644, 
        "lat": 51.54046630859375, 
        "version": "1.1", 
        "t": 1109888, 
        "device": "iPhone7,2", 
        "alt": 31.96818733215332, 
        "os": "8.1"
    }, 
    {
        "total-distance": 638.5268718880905, 
        "distance-from-previous": 1.9681299091565976, 
        "lon": -0.13382968306541443, 
        "lat": 51.52590560913086, 
        "version": "1.1", 
        "t": 1110272, 
        "device": "iPhone7,2", 
        "alt": 34.92228317260742, 
        "os": "8.1"
    }, 
    {
        "total-distance": 640.8522945216189, 
        "distance-from-previous": 2.325422633528406, 
        "lon": -0.10028618574142456, 
        "lat": 51.527259826660156, 
        "version": "1.1", 
        "t": 1112064, 
        "device": "iPhone7,2", 
        "alt": 25.21133041381836, 
        "os": "8.1"
    }, 
    {
        "total-distance": 642.3935485920439, 
        "distance-from-previous": 1.5412540704250361, 
        "lon": -0.07814965397119522, 
        "lat": 51.52569580078125, 
        "version": "1.1", 
        "t": 1112960, 
        "device": "iPhone7,2", 
        "alt": 20.880321502685547, 
        "os": "8.1"
    }, 
    {
        "total-distance": 644.6166001149902, 
        "distance-from-previous": 2.223051522946273, 
        "lon": -0.055249620229005814, 
        "lat": 51.51167297363281, 
        "version": "1.1", 
        "t": 1114112, 
        "device": "iPhone7,2", 
        "alt": 17.704273223876953, 
        "os": "8.1"
    }, 
    {
        "total-distance": 646.2560395059912, 
        "distance-from-previous": 1.6394393910010425, 
        "lon": -0.06363037973642349, 
        "lat": 51.49788284301758, 
        "version": "1.1", 
        "t": 1114624, 
        "device": "iPhone7,2", 
        "alt": -0.17442703247070312, 
        "os": "8.1"
    }, 
    {
        "total-distance": 646.8329380204824, 
        "distance-from-previous": 0.5768985144911509, 
        "lon": -0.07185149937868118, 
        "lat": 51.49873352050781, 
        "version": "1.1", 
        "t": 1118720, 
        "device": "iPhone7,2", 
        "alt": 6.414363861083984, 
        "os": "8.1"
    }, 
    {
        "total-distance": 646.8669601642393, 
        "distance-from-previous": 0.03402214375696509, 
        "lon": -0.07210208475589752, 
        "lat": 51.49899673461914, 
        "version": "1.1", 
        "t": 1121536, 
        "device": "iPhone7,2", 
        "alt": 6.414363861083984, 
        "os": "8.1"
    }, 
    {
        "total-distance": 648.934176894764, 
        "distance-from-previous": 2.0672167305246694, 
        "lon": -0.05712977424263954, 
        "lat": 51.51508331298828, 
        "version": "1.1", 
        "t": 1130368, 
        "device": "iPhone7,2", 
        "alt": 6.414363861083984, 
        "os": "8.1"
    }, 
    {
        "total-distance": 649.0998907279004, 
        "distance-from-previous": 0.1657138331363064, 
        "lon": -0.057685736566782, 
        "lat": 51.51653289794922, 
        "version": "1.1", 
        "t": 1130368, 
        "device": "iPhone7,2", 
        "alt": 6.414363861083984, 
        "os": "8.1"
    }, 
    {
        "total-distance": 649.5268830034233, 
        "distance-from-previous": 0.4269922755228994, 
        "lon": -0.05869824439287186, 
        "lat": 51.520320892333984, 
        "version": "1.1", 
        "t": 1130496, 
        "device": "iPhone7,2", 
        "alt": 6.414363861083984, 
        "os": "8.1"
    }, 
    {
        "total-distance": 649.7818536343185, 
        "distance-from-previous": 0.2549706308952046, 
        "lon": -0.061955928802490234, 
        "lat": 51.521392822265625, 
        "version": "1.1", 
        "t": 1130496, 
        "device": "iPhone7,2", 
        "alt": 53.0035400390625, 
        "os": "8.1"
    }, 
    {
        "total-distance": 649.8980207047198, 
        "distance-from-previous": 0.11616707040129415, 
        "lon": -0.06327230483293533, 
        "lat": 51.52204132080078, 
        "version": "1.1", 
        "t": 1130496, 
        "device": "iPhone7,2", 
        "alt": 12.448497772216797, 
        "os": "8.1"
    }, 
    {
        "total-distance": 651.0168883475583, 
        "distance-from-previous": 1.1188676428385451, 
        "lon": -0.0779937356710434, 
        "lat": 51.526206970214844, 
        "version": "1.1", 
        "t": 1180800, 
        "device": "iPhone7,2", 
        "alt": 20.019746780395508, 
        "os": "8.1.1"
    }, 
    {
        "total-distance": 651.3024589305307, 
        "distance-from-previous": 0.28557058297249044, 
        "lon": -0.07689612358808517, 
        "lat": 51.52373123168945, 
        "version": "1.1", 
        "t": 1190272, 
        "device": "iPhone7,2", 
        "alt": 17.491832733154297, 
        "os": "8.1.1"
    }, 
    {
        "total-distance": 651.5891927644029, 
        "distance-from-previous": 0.2867338338722326, 
        "lon": -0.07803411036729813, 
        "lat": 51.52621078491211, 
        "version": "1.1", 
        "t": 1353728, 
        "device": "iPhone7,2", 
        "alt": 19.888689041137695, 
        "os": "8.1.1"
    }, 
    {
        "total-distance": 652.4834119156964, 
        "distance-from-previous": 0.8942191512934368, 
        "lon": -0.08154214918613434, 
        "lat": 51.518470764160156, 
        "version": "1.1", 
        "t": 1436544, 
        "device": "iPhone7,2", 
        "alt": 18, 
        "os": "8.1.1"
    }, 
    {
        "total-distance": 653.2361912206914, 
        "distance-from-previous": 0.7527793049949902, 
        "lon": -0.07722490280866623, 
        "lat": 51.52468490600586, 
        "version": "1.1", 
        "t": 1455104, 
        "device": "iPhone7,2", 
        "alt": 15.184032440185547, 
        "os": "8.1.1"
    }, 
    {
        "total-distance": 655.1651903470091, 
        "distance-from-previous": 1.9289991263177833, 
        "lon": -0.10224010795354843, 
        "lat": 51.517024993896484, 
        "version": "1.1", 
        "t": 1456384, 
        "device": "iPhone7,2", 
        "alt": 16.1401424407959, 
        "os": "8.1.1"
    }, 
    {
        "total-distance": 658.034654414051, 
        "distance-from-previous": 2.8694640670419407, 
        "lon": -0.14108288288116455, 
        "lat": 51.52606964111328, 
        "version": "1.1", 
        "t": 1457152, 
        "device": "iPhone7,2", 
        "alt": 16.1401424407959, 
        "os": "8.1.1"
    }, 
    {
        "total-distance": 660.4112072893927, 
        "distance-from-previous": 2.3765528753416767, 
        "lon": -0.17313437163829803, 
        "lat": 51.51838302612305, 
        "version": "1.1", 
        "t": 1457536, 
        "device": "iPhone7,2", 
        "alt": 16.1401424407959, 
        "os": "8.1.1"
    }, 
    {
        "total-distance": 665.3382438546494, 
        "distance-from-previous": 4.927036565256671, 
        "lon": -0.2443372905254364, 
        "lat": 51.51789474487305, 
        "version": "1.1", 
        "t": 1460992, 
        "device": "iPhone7,2", 
        "alt": 16.1401424407959, 
        "os": "8.1.1"
    }, 
    {
        "total-distance": 668.559303225041, 
        "distance-from-previous": 3.2210593703916945, 
        "lon": -0.2907901406288147, 
        "lat": 51.51601791381836, 
        "version": "1.1", 
        "t": 1461376, 
        "device": "iPhone7,2", 
        "alt": 16.1401424407959, 
        "os": "8.1.1"
    }, 
    {
        "total-distance": 673.1694611776965, 
        "distance-from-previous": 4.610157952655361, 
        "lon": -0.3555450439453125, 
        "lat": 51.506282806396484, 
        "version": "1.1", 
        "t": 1461632, 
        "device": "iPhone7,2", 
        "alt": 16.1401424407959, 
        "os": "8.1.1"
    }, 
    {
        "total-distance": 677.2623064067079, 
        "distance-from-previous": 4.092845229011482, 
        "lon": -0.41458016633987427, 
        "lat": 51.504150390625, 
        "version": "1.1", 
        "t": 1462144, 
        "device": "iPhone7,2", 
        "alt": 16.1401424407959, 
        "os": "8.1.1"
    }, 
    {
        "total-distance": 680.7818119096623, 
        "distance-from-previous": 3.5195055029543827, 
        "lon": -0.46499934792518616, 
        "lat": 51.508270263671875, 
        "version": "1.1", 
        "t": 1462528, 
        "device": "iPhone7,2", 
        "alt": 16.1401424407959, 
        "os": "8.1.1"
    }, 
    {
        "total-distance": 685.2126639285568, 
        "distance-from-previous": 4.43085201889453, 
        "lon": -0.44975218176841736, 
        "lat": 51.46957015991211, 
        "version": "1.1", 
        "t": 1462912, 
        "device": "iPhone7,2", 
        "alt": 16.1401424407959, 
        "os": "8.1.1"
    }, 
    {
        "total-distance": 685.9172961327378, 
        "distance-from-previous": 0.7046322041809323, 
        "lon": -0.4401746690273285, 
        "lat": 51.47170639038086, 
        "version": "1.1", 
        "t": 1468544, 
        "device": "iPhone7,2", 
        "alt": 24.074560165405273, 
        "os": "8.1.1"
    }, 
    {
        "total-distance": 10262.248065316555, 
        "distance-from-previous": 9576.330769183816, 
        "lon": 100.75342559814453, 
        "lat": 13.687911033630371, 
        "version": "1.1", 
        "t": 1511680, 
        "device": "iPhone7,2", 
        "alt": 0, 
        "os": "8.1.1"
    }, 
    {
        "total-distance": 10262.81532069565, 
        "distance-from-previous": 0.5672553790957924, 
        "lon": 100.75081634521484, 
        "lat": 13.692337989807129, 
        "version": "1.1", 
        "t": 1513088, 
        "device": "iPhone7,2", 
        "alt": 0, 
        "os": "8.1.1"
    }, 
    {
        "total-distance": 10267.266857751767, 
        "distance-from-previous": 4.451537056117297, 
        "lon": 100.76232147216797, 
        "lat": 13.730779647827148, 
        "version": "1.1", 
        "t": 1517184, 
        "device": "iPhone7,2", 
        "alt": 4.794402599334717, 
        "os": "8.1.1"
    }, 
    {
        "total-distance": 10274.434464073116, 
        "distance-from-previous": 7.167606321348104, 
        "lon": 100.69611358642578, 
        "lat": 13.726481437683105, 
        "version": "1.1", 
        "t": 1517568, 
        "device": "iPhone7,2", 
        "alt": 3.071803331375122, 
        "os": "8.1.1"
    }, 
    {
        "total-distance": 10280.775569192192, 
        "distance-from-previous": 6.3411051190762535, 
        "lon": 100.69911193847656, 
        "lat": 13.66952896118164, 
        "version": "1.1", 
        "t": 1517824, 
        "device": "iPhone7,2", 
        "alt": 2.3501827716827393, 
        "os": "8.1.1"
    }, 
    {
        "total-distance": 10283.736304156051, 
        "distance-from-previous": 2.960734963859116, 
        "lon": 100.68550109863281, 
        "lat": 13.646419525146484, 
        "version": "1.1", 
        "t": 1518336, 
        "device": "iPhone7,2", 
        "alt": 6.1908135414123535, 
        "os": "8.1.1"
    }, 
    {
        "total-distance": 10298.154529743817, 
        "distance-from-previous": 14.418225587766125, 
        "lon": 100.5528335571289, 
        "lat": 13.632585525512695, 
        "version": "1.1", 
        "t": 1518976, 
        "device": "iPhone7,2", 
        "alt": 4.94831657409668, 
        "os": "8.1.1"
    }, 
    {
        "total-distance": 10341.963602642816, 
        "distance-from-previous": 43.80907289899825, 
        "lon": 100.1649169921875, 
        "lat": 13.518412590026855, 
        "version": "1.1", 
        "t": 1521152, 
        "device": "iPhone7,2", 
        "alt": -3.785240650177002, 
        "os": "8.1.1"
    }, 
    {
        "total-distance": 10341.981948753233, 
        "distance-from-previous": 0.01834611041682057, 
        "lon": 100.16475677490234, 
        "lat": 13.51835823059082, 
        "version": "1.1", 
        "t": 1521280, 
        "device": "iPhone7,2", 
        "alt": -3.785240650177002, 
        "os": "8.1.1"
    }, 
    {
        "total-distance": 10351.544825754265, 
        "distance-from-previous": 9.56287700103189, 
        "lon": 100.09680938720703, 
        "lat": 13.46330738067627, 
        "version": "1.1", 
        "t": 1521664, 
        "device": "iPhone7,2", 
        "alt": 4.804332733154297, 
        "os": "8.1.1"
    }, 
    {
        "total-distance": 10356.986729913453, 
        "distance-from-previous": 5.441904159188057, 
        "lon": 100.05399322509766, 
        "lat": 13.43759536743164, 
        "version": "1.1", 
        "t": 1522048, 
        "device": "iPhone7,2", 
        "alt": 2.4949278831481934, 
        "os": "8.1.1"
    }, 
    {
        "total-distance": 10363.59976255204, 
        "distance-from-previous": 6.613032638586505, 
        "lon": 99.99858093261719, 
        "lat": 13.412456512451172, 
        "version": "1.1", 
        "t": 1522432, 
        "device": "iPhone7,2", 
        "alt": 10.395326614379883, 
        "os": "8.1.1"
    }, 
    {
        "total-distance": 10367.195419739568, 
        "distance-from-previous": 3.595657187529279, 
        "lon": 99.9680404663086, 
        "lat": 13.425230026245117, 
        "version": "1.1", 
        "t": 1523072, 
        "device": "iPhone7,2", 
        "alt": 4.162707328796387, 
        "os": "8.1.1"
    }, 
    {
        "total-distance": 10367.53120471504, 
        "distance-from-previous": 0.33578497547275293, 
        "lon": 99.96495056152344, 
        "lat": 13.42552375793457, 
        "version": "1.1", 
        "t": 1549440, 
        "device": "iPhone7,2", 
        "alt": 3.4353504180908203, 
        "os": "8.1.1"
    }, 
    {
        "total-distance": 10368.005431050873, 
        "distance-from-previous": 0.4742263358338813, 
        "lon": 99.96286010742188, 
        "lat": 13.421774864196777, 
        "version": "1.1", 
        "t": 1578624, 
        "device": "iPhone7,2", 
        "alt": 2.8622827529907227, 
        "os": "8.1.1"
    }, 
    {
        "total-distance": 10392.33185728695, 
        "distance-from-previous": 24.32642623607794, 
        "lon": 99.95075988769531, 
        "lat": 13.640231132507324, 
        "version": "1.1", 
        "t": 1580160, 
        "device": "iPhone7,2", 
        "alt": 4.36396598815918, 
        "os": "8.1.1"
    }, 
    {
        "total-distance": 10394.147945821893, 
        "distance-from-previous": 1.8160885349417542, 
        "lon": 99.94935607910156, 
        "lat": 13.656506538391113, 
        "version": "1.1", 
        "t": 1584768, 
        "device": "iPhone7,2", 
        "alt": 34.284820556640625, 
        "os": "8.1.1"
    }, 
    {
        "total-distance": 10402.894279788508, 
        "distance-from-previous": 8.746333966616463, 
        "lon": 100.02750396728516, 
        "lat": 13.636015892028809, 
        "version": "1.1", 
        "t": 1585408, 
        "device": "iPhone7,2", 
        "alt": 49.4967041015625, 
        "os": "8.1.1"
    }, 
    {
        "total-distance": 10408.190768253024, 
        "distance-from-previous": 5.296488464514912, 
        "lon": 100.07637786865234, 
        "lat": 13.639619827270508, 
        "version": "1.1", 
        "t": 1585792, 
        "device": "iPhone7,2", 
        "alt": 7.982086181640625, 
        "os": "8.1.1"
    }, 
    {
        "total-distance": 10412.378443697773, 
        "distance-from-previous": 4.18767544474993, 
        "lon": 100.09821319580078, 
        "lat": 13.60850715637207, 
        "version": "1.1", 
        "t": 1586176, 
        "device": "iPhone7,2", 
        "alt": 0.18011474609375, 
        "os": "8.1.1"
    }, 
    {
        "total-distance": 10416.179231924893, 
        "distance-from-previous": 3.8007882271197886, 
        "lon": 100.11491394042969, 
        "lat": 13.578426361083984, 
        "version": "1.1", 
        "t": 1586944, 
        "device": "iPhone7,2", 
        "alt": 5.930601119995117, 
        "os": "8.1.1"
    }, 
    {
        "total-distance": 10425.374574610994, 
        "distance-from-previous": 9.195342686101634, 
        "lon": 100.1823959350586, 
        "lat": 13.52807903289795, 
        "version": "1.1", 
        "t": 1587072, 
        "device": "iPhone7,2", 
        "alt": 5.490363597869873, 
        "os": "8.1.1"
    }, 
    {
        "total-distance": 10425.483939200347, 
        "distance-from-previous": 0.10936458935209765, 
        "lon": 100.18293762207031, 
        "lat": 13.52724838256836, 
        "version": "1.1", 
        "t": 1587200, 
        "device": "iPhone7,2", 
        "alt": 0.9775763154029846, 
        "os": "8.1.1"
    }, 
    {
        "total-distance": 10442.586886872887, 
        "distance-from-previous": 17.10294767253981, 
        "lon": 100.32784271240234, 
        "lat": 13.589007377624512, 
        "version": "1.1", 
        "t": 1587968, 
        "device": "iPhone7,2", 
        "alt": 2.5616185665130615, 
        "os": "8.1.1"
    }, 
    {
        "total-distance": 10463.534677031696, 
        "distance-from-previous": 20.947790158809347, 
        "lon": 100.50348663330078, 
        "lat": 13.668707847595215, 
        "version": "1.1", 
        "t": 1589120, 
        "device": "iPhone7,2", 
        "alt": 2.5616185665130615, 
        "os": "8.1.1"
    }, 
    {
        "total-distance": 10472.839338886972, 
        "distance-from-previous": 9.304661855275889, 
        "lon": 100.57366943359375, 
        "lat": 13.71721076965332, 
        "version": "1.1", 
        "t": 1590144, 
        "device": "iPhone7,2", 
        "alt": 5.951981544494629, 
        "os": "8.1.1"
    }, 
    {
        "total-distance": 10474.226315255666, 
        "distance-from-previous": 1.3869763686952512, 
        "lon": 100.56993865966797, 
        "lat": 13.729146003723145, 
        "version": "1.1", 
        "t": 1591168, 
        "device": "iPhone7,2", 
        "alt": 19.60468864440918, 
        "os": "8.1.1"
    }, 
    {
        "total-distance": 10475.432208808528, 
        "distance-from-previous": 1.2058935528614403, 
        "lon": 100.56391906738281, 
        "lat": 13.738279342651367, 
        "version": "1.1", 
        "t": 1591808, 
        "device": "iPhone7,2", 
        "alt": 13, 
        "os": "8.1.1"
    }, 
    {
        "total-distance": 10477.169207934454, 
        "distance-from-previous": 1.736999125926117, 
        "lon": 100.57952880859375, 
        "lat": 13.734524726867676, 
        "version": "1.1", 
        "t": 1596032, 
        "device": "iPhone7,2", 
        "alt": 10.54033088684082, 
        "os": "8.1.1"
    }, 
    {
        "total-distance": 10477.82425151856, 
        "distance-from-previous": 0.6550435841059093, 
        "lon": 100.58091735839844, 
        "lat": 13.728790283203125, 
        "version": "1.1", 
        "t": 1634048, 
        "device": "iPhone7,2", 
        "alt": 6.797194480895996, 
        "os": "8.1.1"
    }, 
    {
        "total-distance": 10478.347609908815, 
        "distance-from-previous": 0.5233583902562867, 
        "lon": 100.58209228515625, 
        "lat": 13.733356475830078, 
        "version": "1.1", 
        "t": 1635328, 
        "device": "iPhone7,2", 
        "alt": 12.792938232421875, 
        "os": "8.1.1"
    }, 
    {
        "total-distance": 10479.385612122553, 
        "distance-from-previous": 1.0380022137374807, 
        "lon": 100.57546997070312, 
        "lat": 13.726592063903809, 
        "version": "1.1", 
        "t": 1674496, 
        "device": "iPhone7,2", 
        "alt": 11.781756401062012, 
        "os": "8.1.1"
    }, 
    {
        "total-distance": 10480.475815279799, 
        "distance-from-previous": 1.0902031572460908, 
        "lon": 100.56723022460938, 
        "lat": 13.732254028320312, 
        "version": "1.1", 
        "t": 1674880, 
        "device": "iPhone7,2", 
        "alt": 13, 
        "os": "8.1.1"
    }, 
    {
        "total-distance": 10482.517903387696, 
        "distance-from-previous": 2.0420881078965136, 
        "lon": 100.5515365600586, 
        "lat": 13.742494583129883, 
        "version": "1.1", 
        "t": 1675520, 
        "device": "iPhone7,2", 
        "alt": 13, 
        "os": "8.1.1"
    }, 
    {
        "total-distance": 10483.02887779026, 
        "distance-from-previous": 0.5109744025654868, 
        "lon": 100.5468978881836, 
        "lat": 13.743396759033203, 
        "version": "1.1", 
        "t": 1691776, 
        "device": "iPhone7,2", 
        "alt": 103.66911315917969, 
        "os": "8.1.1"
    }, 
    {
        "total-distance": 10483.533324888698, 
        "distance-from-previous": 0.5044470984378254, 
        "lon": 100.55121612548828, 
        "lat": 13.745124816894531, 
        "version": "1.1", 
        "t": 1692544, 
        "device": "iPhone7,2", 
        "alt": 13.257583618164062, 
        "os": "8.1.1"
    }, 
    {
        "total-distance": 10505.936681206063, 
        "distance-from-previous": 22.403356317365812, 
        "lon": 100.75147247314453, 
        "lat": 13.692718505859375, 
        "version": "1.1", 
        "t": 1790336, 
        "device": "iPhone7,2", 
        "alt": -2.6032447814941406, 
        "os": "8.1.1"
    }, 
    {
        "total-distance": 10506.04565312463, 
        "distance-from-previous": 0.10897191856594693, 
        "lon": 100.75077056884766, 
        "lat": 13.692014694213867, 
        "version": "1.1", 
        "t": 1793280, 
        "device": "iPhone7,2", 
        "alt": 5.655920028686523, 
        "os": "8.1.1"
    }, 
    {
        "total-distance": 10506.061588838493, 
        "distance-from-previous": 0.015935713863586647, 
        "lon": 100.75083923339844, 
        "lat": 13.69214153289795, 
        "version": "1.1", 
        "t": 1793536, 
        "device": "iPhone7,2", 
        "alt": 4.440362453460693, 
        "os": "8.1.1"
    }, 
    {
        "total-distance": 20083.134999467435, 
        "distance-from-previous": 9577.073410628942, 
        "lon": -0.46067923307418823, 
        "lat": 51.4738655090332, 
        "version": "1.1", 
        "t": 1848960, 
        "device": "iPhone7,2", 
        "alt": 0, 
        "os": "8.1.1"
    }, 
    {
        "total-distance": 20085.005791353055, 
        "distance-from-previous": 1.8707918856196446, 
        "lon": -0.4393141269683838, 
        "lat": 51.46357345581055, 
        "version": "1.1", 
        "t": 1849344, 
        "device": "iPhone7,2", 
        "alt": 0, 
        "os": "8.1.1"
    }, 
    {
        "total-distance": 20085.79342129543, 
        "distance-from-previous": 0.7876299423786582, 
        "lon": -0.445404589176178, 
        "lat": 51.46955490112305, 
        "version": "1.1", 
        "t": 1849728, 
        "device": "iPhone7,2", 
        "alt": 25.47787857055664, 
        "os": "8.1.1"
    }, 
    {
        "total-distance": 20092.773307316707, 
        "distance-from-previous": 6.979886021275101, 
        "lon": -0.36366602778434753, 
        "lat": 51.50629425048828, 
        "version": "1.1", 
        "t": 1855232, 
        "device": "iPhone7,2", 
        "alt": 26.81307601928711, 
        "os": "8.1.1"
    }, 
    {
        "total-distance": 20095.867069191343, 
        "distance-from-previous": 3.0937618746363458, 
        "lon": -0.3221438229084015, 
        "lat": 51.516605377197266, 
        "version": "1.1", 
        "t": 1855488, 
        "device": "iPhone7,2", 
        "alt": 26.81307601928711, 
        "os": "8.1.1"
    }, 
    {
        "total-distance": 20099.952761642708, 
        "distance-from-previous": 4.085692451363084, 
        "lon": -0.26357051730155945, 
        "lat": 51.52125930786133, 
        "version": "1.1", 
        "t": 1855872, 
        "device": "iPhone7,2", 
        "alt": 26.81307601928711, 
        "os": "8.1.1"
    }, 
    {
        "total-distance": 20105.689369550928, 
        "distance-from-previous": 5.7366079082191055, 
        "lon": -0.18095694482326508, 
        "lat": 51.51690673828125, 
        "version": "1.1", 
        "t": 1856256, 
        "device": "iPhone7,2", 
        "alt": 26.81307601928711, 
        "os": "8.1.1"
    }, 
    {
        "total-distance": 20107.885959213523, 
        "distance-from-previous": 2.196589662596885, 
        "lon": -0.15095846354961395, 
        "lat": 51.523372650146484, 
        "version": "1.1", 
        "t": 1857536, 
        "device": "iPhone7,2", 
        "alt": 26.81307601928711, 
        "os": "8.1.1"
    }, 
    {
        "total-distance": 20110.043672188527, 
        "distance-from-previous": 2.157712975004963, 
        "lon": -0.12078072875738144, 
        "lat": 51.52827453613281, 
        "version": "1.1", 
        "t": 1857920, 
        "device": "iPhone7,2", 
        "alt": 26.81307601928711, 
        "os": "8.1.1"
    }, 
    {
        "total-distance": 20112.238010095687, 
        "distance-from-previous": 2.1943379071588143, 
        "lon": -0.09359264373779297, 
        "lat": 51.51811218261719, 
        "version": "1.1", 
        "t": 1858304, 
        "device": "iPhone7,2", 
        "alt": 26.81307601928711, 
        "os": "8.1.1"
    }, 
    {
        "total-distance": 20113.85745606217, 
        "distance-from-previous": 1.6194459664845229, 
        "lon": -0.0737152099609375, 
        "lat": 51.52580261230469, 
        "version": "1.1", 
        "t": 1874816, 
        "device": "iPhone7,2", 
        "alt": 26.81307601928711, 
        "os": "8.1.1"
    }, 
    {
        "total-distance": 20114.470549278696, 
        "distance-from-previous": 0.6130932165234515, 
        "lon": -0.06531815975904465, 
        "lat": 51.52404022216797, 
        "version": "1.1", 
        "t": 1884544, 
        "device": "iPhone7,2", 
        "alt": 18, 
        "os": "8.1.1"
    }, 
    {
        "total-distance": 20114.516749838833, 
        "distance-from-previous": 0.04620056013800463, 
        "lon": -0.06544294953346252, 
        "lat": 51.52363204956055, 
        "version": "1.1", 
        "t": 1884544, 
        "device": "iPhone7,2", 
        "alt": 18, 
        "os": "8.1.1"
    }, 
    {
        "total-distance": 20114.53593768541, 
        "distance-from-previous": 0.019187846578529125, 
        "lon": -0.06571196764707565, 
        "lat": 51.52367401123047, 
        "version": "1.1", 
        "t": 1884672, 
        "device": "iPhone7,2", 
        "alt": 18, 
        "os": "8.1.1"
    }, 
    {
        "total-distance": 20114.571838591975, 
        "distance-from-previous": 0.03590090656649887, 
        "lon": -0.06581353396177292, 
        "lat": 51.523990631103516, 
        "version": "1.1", 
        "t": 1884672, 
        "device": "iPhone7,2", 
        "alt": 14.012694358825684, 
        "os": "8.1.1"
    }, 
    {
        "total-distance": 20115.137141930234, 
        "distance-from-previous": 0.5653033382602467, 
        "lon": -0.0739826187491417, 
        "lat": 51.52410125732422, 
        "version": "1.1", 
        "t": 1886592, 
        "device": "iPhone7,2", 
        "alt": 18, 
        "os": "8.1.1"
    }, 
    {
        "total-distance": 20116.11060182033, 
        "distance-from-previous": 0.9734598900959568, 
        "lon": -0.08284074813127518, 
        "lat": 51.51729965209961, 
        "version": "1.1", 
        "t": 1974400, 
        "device": "iPhone7,2", 
        "alt": 16.730031967163086, 
        "os": "8.1.1"
    }, 
    {
        "total-distance": 20118.470009075245, 
        "distance-from-previous": 2.3594072549121803, 
        "lon": -0.1169293001294136, 
        "lat": 51.51679611206055, 
        "version": "1.1", 
        "t": 1975168, 
        "device": "iPhone7,2", 
        "alt": 17.52451515197754, 
        "os": "8.1.1"
    }, 
    {
        "total-distance": 20119.003471815176, 
        "distance-from-previous": 0.5334627399303646, 
        "lon": -0.12365745007991791, 
        "lat": 51.51445388793945, 
        "version": "1.1", 
        "t": 1975680, 
        "device": "iPhone7,2", 
        "alt": 27.3857479095459, 
        "os": "8.1.1"
    }, 
    {
        "total-distance": 20119.5470130173, 
        "distance-from-previous": 0.5435412021246996, 
        "lon": -0.11946851760149002, 
        "lat": 51.51858901977539, 
        "version": "1.1", 
        "t": 1980160, 
        "device": "iPhone7,2", 
        "alt": 30.627901077270508, 
        "os": "8.1.1"
    }, 
    {
        "total-distance": 20120.11508008452, 
        "distance-from-previous": 0.5680670672190793, 
        "lon": -0.11127924919128418, 
        "lat": 51.518226623535156, 
        "version": "1.1", 
        "t": 1980672, 
        "device": "iPhone7,2", 
        "alt": 27.34918975830078, 
        "os": "8.1.1"
    }, 
    {
        "total-distance": 20121.02838330937, 
        "distance-from-previous": 0.9133032248483697, 
        "lon": -0.09882278740406036, 
        "lat": 51.51551055908203, 
        "version": "1.1", 
        "t": 1980928, 
        "device": "iPhone7,2", 
        "alt": 20.504030227661133, 
        "os": "8.1.1"
    }, 
    {
        "total-distance": 20122.693616628792, 
        "distance-from-previous": 1.6652333194216602, 
        "lon": -0.0777825340628624, 
        "lat": 51.52278137207031, 
        "version": "1.1", 
        "t": 1981952, 
        "device": "iPhone7,2", 
        "alt": 18, 
        "os": "8.1.1"
    }, 
    {
        "total-distance": 20122.92036552551, 
        "distance-from-previous": 0.22674889672072843, 
        "lon": -0.07648659497499466, 
        "lat": 51.524654388427734, 
        "version": "1.1", 
        "t": 2029952, 
        "device": "iPhone7,2", 
        "alt": 19.22993278503418, 
        "os": "8.1.1"
    }, 
    {
        "total-distance": 20123.294668796476, 
        "distance-from-previous": 0.3743032709640146, 
        "lon": -0.08028128743171692, 
        "lat": 51.52705383300781, 
        "version": "1.1", 
        "t": 2045824, 
        "device": "iPhone7,2", 
        "alt": 18, 
        "os": "8.1.1"
    }, 
    {
        "total-distance": 20123.882620830118, 
        "distance-from-previous": 0.5879520336436167, 
        "lon": -0.08839023113250732, 
        "lat": 51.52547073364258, 
        "version": "1.1", 
        "t": 2048512, 
        "device": "iPhone7,2", 
        "alt": 18.08619499206543, 
        "os": "8.1.1"
    }, 
    {
        "total-distance": 20124.526537731643, 
        "distance-from-previous": 0.6439169015241455, 
        "lon": -0.07922239601612091, 
        "lat": 51.524471282958984, 
        "version": "1.1", 
        "t": 2049152, 
        "device": "iPhone7,2", 
        "alt": 10.995189666748047, 
        "os": "8.1.1"
    }, 
    {
        "total-distance": 20125.595113550924, 
        "distance-from-previous": 1.0685758192827284, 
        "lon": -0.07231277227401733, 
        "lat": 51.51587677001953, 
        "version": "1.1", 
        "t": 2066688, 
        "device": "iPhone7,2", 
        "alt": 15.510326385498047, 
        "os": "8.1.1"
    }, 
    {
        "total-distance": 20127.11645591474, 
        "distance-from-previous": 1.5213423638174215, 
        "lon": -0.07753290981054306, 
        "lat": 51.502586364746094, 
        "version": "1.1", 
        "t": 2067072, 
        "device": "iPhone7,2", 
        "alt": 16.709362030029297, 
        "os": "8.1.1"
    }, 
    {
        "total-distance": 20129.47297600773, 
        "distance-from-previous": 2.356520092991002, 
        "lon": -0.04354371130466461, 
        "lat": 51.50381088256836, 
        "version": "1.1", 
        "t": 2067712, 
        "device": "iPhone7,2", 
        "alt": 4.201920032501221, 
        "os": "8.1.1"
    }, 
    {
        "total-distance": 20129.485213049764, 
        "distance-from-previous": 0.012237042032128543, 
        "lon": -0.04369829595088959, 
        "lat": 51.50375747680664, 
        "version": "1.1", 
        "t": 2067840, 
        "device": "iPhone7,2", 
        "alt": 6.218540668487549, 
        "os": "8.1.1"
    }, 
    {
        "total-distance": 20129.510174134222, 
        "distance-from-previous": 0.024961084458863598, 
        "lon": -0.04375923424959183, 
        "lat": 51.50397872924805, 
        "version": "1.1", 
        "t": 2076672, 
        "device": "iPhone7,2", 
        "alt": 7.018533229827881, 
        "os": "8.1.1"
    }, 
    {
        "total-distance": 20130.491834480945, 
        "distance-from-previous": 0.9816603467234934, 
        "lon": -0.03908481076359749, 
        "lat": 51.51231384277344, 
        "version": "1.1", 
        "t": 2081280, 
        "device": "iPhone7,2", 
        "alt": 1.6739102602005005, 
        "os": "8.1.1"
    }, 
    {
        "total-distance": 20132.26688526576, 
        "distance-from-previous": 1.7750507848142203, 
        "lon": -0.0628729909658432, 
        "lat": 51.518287658691406, 
        "version": "1.1", 
        "t": 2081792, 
        "device": "iPhone7,2", 
        "alt": 14.718822479248047, 
        "os": "8.1.1"
    }, 
    {
        "total-distance": 20133.269716920644, 
        "distance-from-previous": 1.002831654883783, 
        "lon": -0.07281085848808289, 
        "lat": 51.52485275268555, 
        "version": "1.1", 
        "t": 2082176, 
        "device": "iPhone7,2", 
        "alt": 18.896589279174805, 
        "os": "8.1.1"
    }, 
    {
        "total-distance": 20134.05281650382, 
        "distance-from-previous": 0.7830995831751054, 
        "lon": -0.07941780984401703, 
        "lat": 51.519134521484375, 
        "version": "1.1", 
        "t": 2156416, 
        "device": "iPhone7,2", 
        "alt": 18.176225662231445, 
        "os": "8.1.1"
    }, 
    {
        "total-distance": 20134.58735611511, 
        "distance-from-previous": 0.5345396112897083, 
        "lon": -0.07692883163690567, 
        "lat": 51.523685455322266, 
        "version": "1.1", 
        "t": 2157824, 
        "device": "iPhone7,2", 
        "alt": 15.058126449584961, 
        "os": "8.1.1"
    }, 
    {
        "total-distance": 20135.099675164052, 
        "distance-from-previous": 0.5123190489419033, 
        "lon": -0.08251979947090149, 
        "lat": 51.52670669555664, 
        "version": "1.1", 
        "t": 2219520, 
        "device": "iPhone7,2", 
        "alt": 18, 
        "os": "8.1.1"
    }, 
    {
        "total-distance": 20136.46634130692, 
        "distance-from-previous": 1.366666142869478, 
        "lon": -0.10117020457983017, 
        "lat": 51.52265548706055, 
        "version": "1.1", 
        "t": 2220032, 
        "device": "iPhone7,2", 
        "alt": 26, 
        "os": "8.1.1"
    }, 
    {
        "total-distance": 20137.046535943413, 
        "distance-from-previous": 0.5801946364907188, 
        "lon": -0.1093669906258583, 
        "lat": 51.52375793457031, 
        "version": "1.1", 
        "t": 2220288, 
        "device": "iPhone7,2", 
        "alt": 18.697168350219727, 
        "os": "8.1.1"
    }, 
    {
        "total-distance": 20138.110254411316, 
        "distance-from-previous": 1.063718467902132, 
        "lon": -0.11966510862112045, 
        "lat": 51.51665496826172, 
        "version": "1.1", 
        "t": 2226176, 
        "device": "iPhone7,2", 
        "alt": 27.34906768798828, 
        "os": "8.1.1"
    }, 
    {
        "total-distance": 20138.612252249048, 
        "distance-from-previous": 0.5019978377322878, 
        "lon": -0.12241721898317337, 
        "lat": 51.51247787475586, 
        "version": "1.1", 
        "t": 2229760, 
        "device": "iPhone7,2", 
        "alt": 25.310970306396484, 
        "os": "8.1.1"
    }, 
    {
        "total-distance": 20141.065518184987, 
        "distance-from-previous": 2.4532659359409843, 
        "lon": -0.09096002578735352, 
        "lat": 51.52265548706055, 
        "version": "1.1", 
        "t": 2235392, 
        "device": "iPhone7,2", 
        "alt": 25.79877281188965, 
        "os": "8.1.1"
    }, 
    {
        "total-distance": 20142.105888283502, 
        "distance-from-previous": 1.0403700985136843, 
        "lon": -0.07629001140594482, 
        "lat": 51.52471160888672, 
        "version": "1.1", 
        "t": 2235776, 
        "device": "iPhone7,2", 
        "alt": 20.142562866210938, 
        "os": "8.1.1"
    }, 
    {
        "total-distance": 20142.125005438593, 
        "distance-from-previous": 0.019117155091817904, 
        "lon": -0.07601703703403473, 
        "lat": 51.52473831176758, 
        "version": "1.1", 
        "t": 2336384, 
        "device": "iPhone7,2", 
        "alt": 18.92104148864746, 
        "os": "8.1.1"
    }, 
    {
        "total-distance": 20142.253664983244, 
        "distance-from-previous": 0.12865954465166396, 
        "lon": -0.07686440646648407, 
        "lat": 51.52370834350586, 
        "version": "1.1", 
        "t": 2377600, 
        "device": "iPhone7,2", 
        "alt": 18.021137237548828, 
        "os": "8.1.1"
    }, 
    {
        "total-distance": 20142.95780713901, 
        "distance-from-previous": 0.7041421557653873, 
        "lon": -0.080410897731781, 
        "lat": 51.52964401245117, 
        "version": "1.1", 
        "t": 2431744, 
        "device": "iPhone7,2", 
        "alt": 18.932104110717773, 
        "os": "8.1.1"
    }, 
    {
        "total-distance": 20143.570520918995, 
        "distance-from-previous": 0.6127137799860949, 
        "lon": -0.07645014673471451, 
        "lat": 51.524715423583984, 
        "version": "1.1", 
        "t": 2432896, 
        "device": "iPhone7,2", 
        "alt": 19.306304931640625, 
        "os": "8.1.1"
    }, 
    {
        "total-distance": 20144.809784113197, 
        "distance-from-previous": 1.2392631942005485, 
        "lon": -0.06038189306855202, 
        "lat": 51.51979064941406, 
        "version": "1.1", 
        "t": 2496896, 
        "device": "iPhone7,2", 
        "alt": 18.000913619995117, 
        "os": "8.1.1"
    }, 
    {
        "total-distance": 20146.02508893869, 
        "distance-from-previous": 1.2153048254949455, 
        "lon": -0.0757264494895935, 
        "lat": 51.51447296142578, 
        "version": "1.1", 
        "t": 2497536, 
        "device": "iPhone7,2", 
        "alt": 16.14533805847168, 
        "os": "8.1.1"
    }, 
    {
        "total-distance": 20146.80439957446, 
        "distance-from-previous": 0.7793106357694335, 
        "lon": -0.085248202085495, 
        "lat": 51.5107307434082, 
        "version": "1.1", 
        "t": 2497920, 
        "device": "iPhone7,2", 
        "alt": 17.103132247924805, 
        "os": "8.1.1"
    }, 
    {
        "total-distance": 20148.061215437072, 
        "distance-from-previous": 1.2568158626112913, 
        "lon": -0.10333043336868286, 
        "lat": 51.511783599853516, 
        "version": "1.1", 
        "t": 2498176, 
        "device": "iPhone7,2", 
        "alt": 21.04867172241211, 
        "os": "8.1.1"
    }, 
    {
        "total-distance": 20148.783178769027, 
        "distance-from-previous": 0.7219633319532899, 
        "lon": -0.11373156309127808, 
        "lat": 51.51128005981445, 
        "version": "1.1", 
        "t": 2498560, 
        "device": "iPhone7,2", 
        "alt": 9.3847017288208, 
        "os": "8.1.1"
    }, 
    {
        "total-distance": 20150.98826629132, 
        "distance-from-previous": 2.2050875222919273, 
        "lon": -0.08230681717395782, 
        "lat": 51.50800323486328, 
        "version": "1.1", 
        "t": 2513536, 
        "device": "iPhone7,2", 
        "alt": 16.817474365234375, 
        "os": "8.1.1"
    }, 
    {
        "total-distance": 20152.559024540617, 
        "distance-from-previous": 1.5707582492960581, 
        "lon": -0.07788031548261642, 
        "lat": 51.52185821533203, 
        "version": "1.1", 
        "t": 2514560, 
        "device": "iPhone7,2", 
        "alt": 16.817474365234375, 
        "os": "8.1.1"
    }, 
    {
        "total-distance": 20153.079008375575, 
        "distance-from-previous": 0.5199838349592932, 
        "lon": -0.07759702950716019, 
        "lat": 51.52653121948242, 
        "version": "1.1", 
        "t": 2561792, 
        "device": "iPhone7,2", 
        "alt": 20.26793098449707, 
        "os": "8.1.1"
    }, 
    {
        "total-distance": 20153.406848575458, 
        "distance-from-previous": 0.32784019988240953, 
        "lon": -0.07635794579982758, 
        "lat": 51.523685455322266, 
        "version": "1.1", 
        "t": 2582272, 
        "device": "iPhone7,2", 
        "alt": 16.36203956604004, 
        "os": "8.1.1"
    }, 
    {
        "total-distance": 20153.40840869339, 
        "distance-from-previous": 0.0015601179345001534, 
        "lon": -0.07634489983320236, 
        "lat": 51.52367401123047, 
        "version": "1.1", 
        "t": 2582400, 
        "device": "iPhone7,2", 
        "alt": 16.604297637939453, 
        "os": "8.1.1"
    }, 
    {
        "total-distance": 20153.83206532079, 
        "distance-from-previous": 0.42365662739790627, 
        "lon": -0.07925247400999069, 
        "lat": 51.520320892333984, 
        "version": "1.1", 
        "t": 2647680, 
        "device": "iPhone7,2", 
        "alt": 18.571998596191406, 
        "os": "8.1.1"
    }, 
    {
        "total-distance": 20154.531384620415, 
        "distance-from-previous": 0.6993192996273585, 
        "lon": -0.08856169879436493, 
        "lat": 51.51787185668945, 
        "version": "1.1", 
        "t": 2648448, 
        "device": "iPhone7,2", 
        "alt": 15.981876373291016, 
        "os": "8.1.1"
    }, 
    {
        "total-distance": 20155.09818006505, 
        "distance-from-previous": 0.5667954446344464, 
        "lon": -0.08038421720266342, 
        "lat": 51.517574310302734, 
        "version": "1.1", 
        "t": 2652032, 
        "device": "iPhone7,2", 
        "alt": 19.63220977783203, 
        "os": "8.1.1"
    }, 
    {
        "total-distance": 20155.827949219078, 
        "distance-from-previous": 0.7297691540252534, 
        "lon": -0.07702762633562088, 
        "lat": 51.52379608154297, 
        "version": "1.1", 
        "t": 2652800, 
        "device": "iPhone7,2", 
        "alt": 17.489768981933594, 
        "os": "8.1.1"
    }, 
    {
        "total-distance": 20157.34475277025, 
        "distance-from-previous": 1.5168035511703117, 
        "lon": -0.09893777221441269, 
        "lat": 51.523311614990234, 
        "version": "1.1", 
        "t": 2666112, 
        "device": "iPhone7,2", 
        "alt": 18.469892501831055, 
        "os": "8.1.1"
    }, 
    {
        "total-distance": 20158.06978590041, 
        "distance-from-previous": 0.7250331301613472, 
        "lon": -0.10904955863952637, 
        "lat": 51.5250244140625, 
        "version": "1.1", 
        "t": 2666880, 
        "device": "iPhone7,2", 
        "alt": 22.920461654663086, 
        "os": "8.1.1"
    }, 
    {
        "total-distance": 20158.756807820304, 
        "distance-from-previous": 0.6870219198929517, 
        "lon": -0.10597321391105652, 
        "lat": 51.53089904785156, 
        "version": "1.1", 
        "t": 2678656, 
        "device": "iPhone7,2", 
        "alt": 26, 
        "os": "8.1.1"
    }, 
    {
        "total-distance": 20160.068424852027, 
        "distance-from-previous": 1.3116170317220972, 
        "lon": -0.08809341490268707, 
        "lat": 51.526973724365234, 
        "version": "1.1", 
        "t": 2679296, 
        "device": "iPhone7,2", 
        "alt": 20.577232360839844, 
        "os": "8.1.1"
    }, 
    {
        "total-distance": 20160.83818348161, 
        "distance-from-previous": 0.7697586295832198, 
        "lon": -0.07748807966709137, 
        "lat": 51.524879455566406, 
        "version": "1.1", 
        "t": 2679936, 
        "device": "iPhone7,2", 
        "alt": 18.13446807861328, 
        "os": "8.1.1"
    }, 
    {
        "total-distance": 20160.912393947223, 
        "distance-from-previous": 0.07421046561371454, 
        "lon": -0.07646778225898743, 
        "lat": 51.52467346191406, 
        "version": "1.1", 
        "t": 2682624, 
        "device": "iPhone7,2", 
        "alt": 19.496685028076172, 
        "os": "8.1.1"
    }, 
    {
        "total-distance": 20161.37708151374, 
        "distance-from-previous": 0.46468756651522797, 
        "lon": -0.07472530007362366, 
        "lat": 51.52063751220703, 
        "version": "1.1", 
        "t": 2688896, 
        "device": "iPhone7,2", 
        "alt": 19.18769073486328, 
        "os": "8.1.1"
    }, 
    {
        "total-distance": 20163.05389470341, 
        "distance-from-previous": 1.6768131896701663, 
        "lon": -0.05901671573519707, 
        "lat": 51.5091552734375, 
        "version": "1.1", 
        "t": 2689664, 
        "device": "iPhone7,2", 
        "alt": 18.755788803100586, 
        "os": "8.1.1"
    }, 
    {
        "total-distance": 20164.822687137745, 
        "distance-from-previous": 1.7687924343327595, 
        "lon": -0.0799582228064537, 
        "lat": 51.51827621459961, 
        "version": "1.1", 
        "t": 2699520, 
        "device": "iPhone7,2", 
        "alt": 13.770870208740234, 
        "os": "8.1.1"
    }, 
    {
        "total-distance": 20165.579715926226, 
        "distance-from-previous": 0.7570287884803, 
        "lon": -0.07642323523759842, 
        "lat": 51.52471923828125, 
        "version": "1.1", 
        "t": 2701312, 
        "device": "iPhone7,2", 
        "alt": 19.471294403076172, 
        "os": "8.1.1"
    }, 
    {
        "total-distance": 20165.59193350388, 
        "distance-from-previous": 0.012217577654331714, 
        "lon": -0.07659288495779037, 
        "lat": 51.524688720703125, 
        "version": "1.1", 
        "t": 2710272, 
        "device": "iPhone7,2", 
        "alt": 19.827438354492188, 
        "os": "8.1.1"
    }, 
    {
        "total-distance": 20166.09298614366, 
        "distance-from-previous": 0.5010526397789027, 
        "lon": -0.07411589473485947, 
        "lat": 51.52045440673828, 
        "version": "1.1", 
        "t": 2736896, 
        "device": "iPhone7,2", 
        "alt": 18, 
        "os": "8.1.1"
    }, 
    {
        "total-distance": 20166.59887699746, 
        "distance-from-previous": 0.5058908538000078, 
        "lon": -0.07639934122562408, 
        "lat": 51.524776458740234, 
        "version": "1.1", 
        "t": 2737536, 
        "device": "iPhone7,2", 
        "alt": 18, 
        "os": "8.1.1"
    }, 
    {
        "total-distance": 20166.61169231146, 
        "distance-from-previous": 0.012815314000637611, 
        "lon": -0.07654811441898346, 
        "lat": 51.52470779418945, 
        "version": "1.1", 
        "t": 2761216, 
        "device": "iPhone7,2", 
        "alt": 20.70280647277832, 
        "os": "8.1.1"
    }, 
    {
        "total-distance": 20167.91771240682, 
        "distance-from-previous": 1.3060200953586405, 
        "lon": -0.09540625661611557, 
        "lat": 51.524173736572266, 
        "version": "1.1", 
        "t": 2824448, 
        "device": "iPhone7,2", 
        "alt": 23.040050506591797, 
        "os": "8.1.1"
    }, 
    {
        "total-distance": 20168.43568774512, 
        "distance-from-previous": 0.5179753383013801, 
        "lon": -0.10242954641580582, 
        "lat": 51.522560119628906, 
        "version": "1.1", 
        "t": 2827392, 
        "device": "iPhone7,2", 
        "alt": 26, 
        "os": "8.1.1"
    }, 
    {
        "total-distance": 20169.20216260776, 
        "distance-from-previous": 0.7664748626374592, 
        "lon": -0.09213075041770935, 
        "lat": 51.52510070800781, 
        "version": "1.1", 
        "t": 2834816, 
        "device": "iPhone7,2", 
        "alt": 21.35638427734375, 
        "os": "8.1.1"
    }, 
    {
        "total-distance": 20170.014656415446, 
        "distance-from-previous": 0.8124938076855174, 
        "lon": -0.0807499885559082, 
        "lat": 51.52690505981445, 
        "version": "1.1", 
        "t": 2835328, 
        "device": "iPhone7,2", 
        "alt": 19.379180908203125, 
        "os": "8.1.1"
    }, 
    {
        "total-distance": 20170.72214228204, 
        "distance-from-previous": 0.7074858665950843, 
        "lon": -0.07963687926530838, 
        "lat": 51.52058029174805, 
        "version": "1.1", 
        "t": 2924160, 
        "device": "iPhone7,2", 
        "alt": 18, 
        "os": "8.1.1"
    }, 
    {
        "total-distance": 20175.034727423008, 
        "distance-from-previous": 4.312585140965953, 
        "lon": -0.1413993537425995, 
        "lat": 51.51537322998047, 
        "version": "1.1", 
        "t": 2925568, 
        "device": "iPhone7,2", 
        "alt": 18.89241600036621, 
        "os": "8.1.1"
    }, 
    {
        "total-distance": 20179.091017517443, 
        "distance-from-previous": 4.0562900944341, 
        "lon": -0.08285580575466156, 
        "lat": 51.517242431640625, 
        "version": "1.1", 
        "t": 2936064, 
        "device": "iPhone7,2", 
        "alt": 24.431865692138672, 
        "os": "8.1.1"
    }, 
    {
        "total-distance": 20179.92310594258, 
        "distance-from-previous": 0.8320884251376741, 
        "lon": -0.07679147273302078, 
        "lat": 51.523704528808594, 
        "version": "1.1", 
        "t": 2936576, 
        "device": "iPhone7,2", 
        "alt": 15.006489753723145, 
        "os": "8.1.1"
    }, 
    {
        "total-distance": 20180.664647240144, 
        "distance-from-previous": 0.7415412975631637, 
        "lon": -0.08212881535291672, 
        "lat": 51.517921447753906, 
        "version": "1.1", 
        "t": 3016320, 
        "device": "iPhone7,2", 
        "alt": 18.68207550048828, 
        "os": "8.1.1"
    }, 
    {
        "total-distance": 20184.772334966532, 
        "distance-from-previous": 4.107687726386656, 
        "lon": -0.14134733378887177, 
        "lat": 51.51533889770508, 
        "version": "1.1", 
        "t": 3017216, 
        "device": "iPhone7,2", 
        "alt": 20.350387573242188, 
        "os": "8.1.1"
    }, 
    {
        "total-distance": 20185.273838830308, 
        "distance-from-previous": 0.5015038637766649, 
        "lon": -0.13757997751235962, 
        "lat": 51.5114860534668, 
        "version": "1.1", 
        "t": 3017600, 
        "device": "iPhone7,2", 
        "alt": 26.167837142944336, 
        "os": "8.1.1"
    }, 
    {
        "total-distance": 20185.788458640043, 
        "distance-from-previous": 0.5146198097342842, 
        "lon": -0.14203035831451416, 
        "lat": 51.515193939208984, 
        "version": "1.1", 
        "t": 3033344, 
        "device": "iPhone7,2", 
        "alt": 28.569992065429688, 
        "os": "8.1.1"
    }, 
    {
        "total-distance": 20186.29406157751, 
        "distance-from-previous": 0.5056029374681593, 
        "lon": -0.1348770558834076, 
        "lat": 51.51612091064453, 
        "version": "1.1", 
        "t": 3034624, 
        "device": "iPhone7,2", 
        "alt": 27.04946517944336, 
        "os": "8.1.1"
    }, 
    {
        "total-distance": 20187.16882240162, 
        "distance-from-previous": 0.8747608241098468, 
        "lon": -0.122794970870018, 
        "lat": 51.518436431884766, 
        "version": "1.1", 
        "t": 3035264, 
        "device": "iPhone7,2", 
        "alt": 26, 
        "os": "8.1.1"
    }, 
    {
        "total-distance": 20188.61046059696, 
        "distance-from-previous": 1.4416381953371027, 
        "lon": -0.10222689062356949, 
        "lat": 51.5163688659668, 
        "version": "1.1", 
        "t": 3035520, 
        "device": "iPhone7,2", 
        "alt": 26, 
        "os": "8.1.1"
    }, 
    {
        "total-distance": 20189.70377882627, 
        "distance-from-previous": 1.093318229310652, 
        "lon": -0.08684638142585754, 
        "lat": 51.51411819458008, 
        "version": "1.1", 
        "t": 3035904, 
        "device": "iPhone7,2", 
        "alt": 18, 
        "os": "8.1.1"
    }, 
    {
        "total-distance": 20190.25474416808, 
        "distance-from-previous": 0.5509653418090715, 
        "lon": -0.08116471767425537, 
        "lat": 51.5175895690918, 
        "version": "1.1", 
        "t": 3036160, 
        "device": "iPhone7,2", 
        "alt": 18, 
        "os": "8.1.1"
    }, 
    {
        "total-distance": 20191.091312790897, 
        "distance-from-previous": 0.8365686228183149, 
        "lon": -0.07647743076086044, 
        "lat": 51.5245246887207, 
        "version": "1.1", 
        "t": 3036544, 
        "device": "iPhone7,2", 
        "alt": 19.505428314208984, 
        "os": "8.1.1"
    }
]
